<?xml version="1.0" encoding="utf-8"?>
<!-- Generator: Adobe Illustrator 16.0.4, SVG Export Plug-In . SVG Version: 6.00 Build 0)  -->
<!DOCTYPE svg PUBLIC "-//W3C//DTD SVG 1.1//EN" "http://www.w3.org/Graphics/SVG/1.1/DTD/svg11.dtd">
<svg version="1.1" id="Layer_1" xmlns="http://www.w3.org/2000/svg" xmlns:xlink="http://www.w3.org/1999/xlink" x="0px" y="0px"
	 width="10px" height="10px" viewBox="0 0 10 10" enable-background="new 0 0 10 10" xml:space="preserve">
<g>
	<g>
		<path fill="#2699FB" d="M6.56,7.458L2.543,3.441c-0.247-0.248-0.248-0.65,0-0.899c0.248-0.247,0.65-0.247,0.898,0.001L7.458,6.56
			c0.248,0.248,0.248,0.65,0.001,0.898C7.21,7.706,6.809,7.706,6.56,7.458z"/>
	</g>
	<g>
		<path fill="#2699FB" d="M2.543,7.457c-0.248-0.248-0.249-0.65-0.001-0.898l4.017-4.017c0.248-0.248,0.651-0.248,0.899,0
			s0.248,0.651,0,0.898L3.441,7.458C3.193,7.705,2.791,7.705,2.543,7.457z"/>
	</g>
</g>
</svg>
